{
    "$id": "serviceTemplateSchemtic",
    "title": "Template Service",
    "type": "object",
    "properties": {
        "path": {
            "type": "string",
            "format": "path",
            "description": "The path at which to create the component file, relative to the current workspace. Default is a folder with the same name as the component in the project root.",
            "visible": false
          },
          "project": {
            "type": "string",
            "description": "Specifies the project to run schematic in",
            "default": "defaultProject"
        },
          "name": {
            "type": "string",
            "description": "The name of the service.",
            "$default": {
              "$source": "argv",
              "index": 0
            },
            "x-prompt": "What name would you like to use for the service?"
          },
        "skiptest": {
            "type": "boolean",
            "description": "Specifies if a spec file  is generated",
            "default": false
        },
        "search": {
            "type": "boolean",
            "description": "generate directive for autocomplete",
            "default": false
        },
        "loop": {
          "type": "boolean",
          "description": "generate directive for loop",
          "default": false
      }
    }
}